<?xml version="1.0" encoding="utf-8"?>
<!-- Generator: Adobe Illustrator 24.0.2, SVG Export Plug-In . SVG Version: 6.00 Build 0)  -->
<svg version="1.1" id="Capa_1" xmlns="http://www.w3.org/2000/svg" xmlns:xlink="http://www.w3.org/1999/xlink" x="0px" y="0px"
	 viewBox="0 0 398.1 178.3" style="enable-background:new 0 0 398.1 178.3;" xml:space="preserve">
<style type="text/css">
	.st0{fill:#FE5607;stroke:#FE5607;stroke-width:3;stroke-miterlimit:10;}
	.st1{fill:#FE5607;stroke:#FE5607;stroke-width:4;stroke-miterlimit:10;}
</style>
<g>
	<path class="st0" d="M396.5,121.4L392.4,79c-2-20.5-13-38.6-29.9-49.7c2.9-2.1,4.5-5.8,3.9-9.5c-0.8-5.5-5.9-9.2-11.4-8.4L331.9,15
		c-47.5-17.3-127.2-26.7-236,27c-10.4,5.2-21.6,8.5-33.3,10c-24.4,3.1-41.8,12.8-51.9,28.8c-16.4,26.1-5.9,58.8-5.4,60.2
		c1.4,4.1,5.2,6.9,9.5,6.9H48c4.4,16.6,19.6,28.9,37.6,28.9s33.2-12.3,37.6-28.9h171.6c4.4,16.6,19.6,28.9,37.6,28.9
		s33.2-12.3,37.6-28.9h2.3c6.8,0,13.3-2.9,17.9-7.9C394.9,134.9,397.2,128.2,396.5,121.4z M351.5,137.9c0,10.4-8.5,18.9-18.9,18.9
		s-18.9-8.5-18.9-18.9s8.5-18.9,18.9-18.9C343,118.9,351.5,127.4,351.5,137.9z M104.6,137.9c0,10.4-8.5,18.9-18.9,18.9
		s-18.9-8.5-18.9-18.9S75.3,119,85.7,119S104.6,127.4,104.6,137.9z M370.2,127.9c-4.4-16.6-19.6-28.9-37.6-28.9
		s-33.2,12.3-37.6,28.9H123.3C118.9,111.3,103.7,99,85.7,99s-33.2,12.3-37.6,28.9H22.7c-1.6-8.8-2.7-24.2,5-36.5
		C34.4,80.8,47,74.2,65.1,71.9c13.8-1.8,27.2-5.8,39.6-11.9c102.9-50.8,177-42,220.7-26c1,0.6,2,1,3.1,1.2
		c7.3,2.8,13.6,5.8,19.1,8.7c14,7.4,23.2,21.3,24.8,37.2l4.1,42.4c0.2,1.6-0.6,2.7-1,3.2c-0.5,0.5-1.5,1.3-3,1.3L370.2,127.9
		L370.2,127.9z"/>
</g>
<g>
	<g>
		<polygon class="st1" points="271,40.9 226.4,85.4 202.8,61.8 190.1,74.5 226.4,110.8 283.7,53.6 		"/>
	</g>
</g>
</svg>
