<?xml version="1.0" encoding="utf-8"?>
<!-- Generator: Adobe Illustrator 24.0.2, SVG Export Plug-In . SVG Version: 6.00 Build 0)  -->
<svg version="1.1" id="Capa_1" xmlns="http://www.w3.org/2000/svg" xmlns:xlink="http://www.w3.org/1999/xlink" x="0px" y="0px"
	 viewBox="0 0 503.3 512" style="enable-background:new 0 0 503.3 512;" xml:space="preserve">
<style type="text/css">
	.st0{fill:#FE5607;}
</style>
<g>
	<path class="st0" d="M421.4,213.3c17.6-17.6,17.6-46.1,0-63.6c-17.6-17.6-46.1-17.6-63.6,0c-17.6,17.6-17.6,46.1,0,63.6
		C375.3,230.8,403.8,230.9,421.4,213.3z M379,170.8c5.9-5.9,15.3-5.9,21.2,0c5.9,5.9,5.9,15.3,0,21.2c-5.9,5.9-15.4,5.9-21.2,0
		C373.1,186.2,373.1,176.7,379,170.8z"/>
	<path class="st0" d="M0,512h360V336.9c40.1,2.6,77.3-12.2,103.8-38.8c52.6-52.6,52.6-138.3,0-190.9C435.4,78.8,397.3,65.7,360,68V0
		H68.8L0,68.8L0,512z M442.6,128.4c40.9,40.9,40.9,107.6,0,148.5c-26.4,26.4-64.2,36.4-101.1,26.7l-8.3-2.2L298.5,336H247v43h-42v42
		h-55v-63.6l119.6-119.6l-2.2-8.3c-9.7-36.8,0.3-74.6,26.7-101.1C335,87.5,401.7,87.5,442.6,128.4L442.6,128.4z M330,73.2
		c-20.9,6.2-40.6,17.5-57.1,34c-17,17-29,38.2-34.9,61.4c-4.9,19.5-5.5,40.1-1.6,59.9L120,344.9V451h115v-42h42v-43h33.9l19.1-19
		v135H30V121h90V30h210L330,73.2L330,73.2z M81.2,30H90v61H30v-9.8L81.2,30z"/>
	<path class="st0" d="M60,151h120v30H60L60,151z"/>
	<path class="st0" d="M60,211h120v30H60L60,211z"/>
	<path class="st0" d="M60,271h60v30H60V271z"/>
</g>
</svg>
